"title","description","identifier","valueTemplate","validValues","default","examples","parent","entityRef","fieldRef","owner","list","collapsing","repeating","recurring","recursing","identifying"
"Title","Full title
","full_title","string",NA,NA,NA,"general",NA,NA,NA,NA,NA,NA,NA,NA,NA
"Authors","Author names (Last and captial of First), e.g.: Smith S, Caruso T, and Marsh C.
","authors","string",NA,NA,NA,"general",NA,NA,NA,NA,NA,NA,NA,NA,NA
"Publication
","Where the study was published (journal, book, etc.)","publication","string",NA,NA,NA,"general",NA,NA,NA,NA,NA,NA,NA,NA,NA
"Study identifier","Unique identifier for this study","studyID","xdoi",NA,NA,NA,"general",NA,NA,NA,NA,NA,NA,NA,NA,NA
"Study topic","Add a short list of topics the publication is about","study_topic","string",NA,NA,NA,"general",NA,NA,NA,NA,NA,NA,NA,NA,NA
"General comments","Any general comments the coder wants to add about this study","comments","string",NA,NA,NA,"general",NA,NA,NA,NA,NA,NA,NA,NA,NA
"Year of publication","Year article was published","year_published","integer_length4",NA,NA,NA,"general",NA,NA,NA,NA,NA,NA,NA,NA,NA
"Data location","Country (or countries) where the data was collected","country_data","countrycode",NA,NA,NA,"general",NA,NA,NA,NA,NA,NA,NA,NA,NA
"Author affiliation","Country (or countries) of authors' affiliation","country_affil","countrycode",NA,NA,NA,"general",NA,NA,NA,NA,NA,NA,NA,NA,NA
"Type of publication
","Where was the study published","publication_type","categorical","""journal"" || ""book""|| ""ThesisDissertation"" || ""other""",NA,NA,"general",NA,NA,NA,NA,NA,NA,NA,NA,NA
"General","General information about the study.","general",NA,NA,NA,NA,NA,NA,NA,NA,NA,NA,NA,NA,NA,NA
"Methods","Information about the study's methods (e.g. design, data collection, analysis procedures, operationalizations, etc).","methods",NA,NA,NA,NA,NA,NA,NA,NA,NA,NA,NA,NA,NA,NA
"Design","Information about the design of the study.","design",NA,NA,NA,NA,"methods",NA,NA,NA,NA,NA,NA,NA,NA,NA
"Open Science","Degree of adherence to open science principles","openscience",NA,NA,NA,NA,NA,NA,NA,NA,NA,NA,NA,NA,NA,NA
"Data",NA,"data",NA,NA,NA,NA,"methods",NA,NA,NA,NA,NA,NA,NA,NA,NA
"Coding",NA,"coding",NA,NA,NA,NA,"methods",NA,NA,NA,NA,NA,NA,NA,NA,NA
"Sample",NA,"sample",NA,NA,NA,NA,"methods",NA,NA,NA,NA,NA,NA,NA,NA,NA
"Segmentation",NA,"segmentation",NA,NA,NA,NA,"methods",NA,NA,NA,NA,NA,NA,NA,NA,NA
"Type of study","General research design
","study_type","categorical","""empirical"" || ""theoretical"" || ""review"" || ""other""",NA,NA,"design",NA,NA,NA,NA,NA,NA,NA,NA,NA
"ENA","Was ENA employed?","ENA","categorical","""yes"" || ""no""",NA,NA,"design",NA,NA,NA,NA,NA,NA,NA,NA,NA
"Analytical methods","Methods of analysis (aside from ENA)","study_methods","string",NA,NA,NA,"design",NA,NA,NA,NA,NA,NA,NA,NA,NA
"Research questions/objectives","Main research question(s)/objective(s)","objectives","string",NA,NA,NA,"design",NA,NA,NA,NA,NA,NA,NA,NA,NA
"Type of data","What kind(s) of raw data was collected
","data_type","categorical","""audio"" || ""video"" || ""audio-video"" || ""text"" || ""numerical"" || ""other"" || ""not reported"" || ""not applicable""",NA,NA,"data",NA,NA,NA,NA,NA,NA,NA,NA,NA
"Method of data collection","How was the data collected","data_collection","categorical","""semi-structured interview"" || ""structured interview"" || ""observation"" || ""chatroom"" || ""focus group"" || ""survey"" || ""archive"" || ""other"" || ""not reported"" || ""not applicable""",NA,NA,"data",NA,NA,NA,NA,NA,NA,NA,NA,NA
"Source of data","Who are the sources of the data? How is the data handled? (e.g.: narratives from individuals but data handled as a group, i.e. not parsed according to individual speakers)
","data_source","categorical","""individual"" || ""dyad"" || ""group"" || ""individual and group"" || ""other"" || ""not reported""  || ""not applicable""",NA,NA,"data",NA,NA,NA,NA,NA,NA,NA,NA,NA
"Sampling","What were the sampling strategies used","sampling","string",NA,NA,NA,"sample",NA,NA,NA,NA,NA,NA,NA,NA,NA
"Sample size","Total number of human participants in the study (note: the actual sample size may be larger if multiple observations are collected per participant and sources
of data may not be human)","N","integer",NA,NA,NA,"sample",NA,NA,NA,NA,NA,NA,NA,NA,NA
"Case study","Was this a case study?","case_study","categorical","""yes"" || ""no""",NA,NA,"sample",NA,NA,NA,NA,NA,NA,NA,NA,NA
"Variables","The variables as used/observed in the study","variables","string",NA,NA,NA,"design",NA,NA,NA,NA,NA,TRUE,NA,NA,NA
"Metadata","What metadata (i.e. attributes) were recorded? (age, sex, level of education, etc.)","metadata","string",NA,NA,NA,"design",NA,NA,NA,NA,NA,NA,NA,NA,NA
"Type of coding","What type of coding was used?","code_type","categorical","""inductive"" || ""deductive"" || ""inductive and deductive"" || ""not reported"" || ""not applicable""",NA,NA,"coding",NA,NA,NA,NA,NA,NA,NA,NA,NA
"Development of codes","How was the coding structure created? (Any details on the creation or utilization of the code tree)","code_development","string",NA,NA,NA,"coding",NA,NA,NA,NA,NA,NA,NA,NA,NA
"Number of codes","How many codes were employed (lowest level of abstraction)?","code_number","integer",NA,NA,NA,"coding",NA,NA,NA,NA,NA,NA,NA,NA,NA
"Process of coding","How was the data coded?","coding_process","categorical","""automated"" || ""manual"" || ""automated and manual"" || ""other"" || ""not reported"" || ""not applicable""",NA,NA,"coding",NA,NA,NA,NA,NA,NA,NA,NA,NA
"Number of raters","How many raters coded the data? (include computer as rater, e.g.: two humans + machine = 3 raters)","rater_number","integer",NA,NA,NA,"coding",NA,NA,NA,NA,NA,NA,NA,NA,NA
"Types of raters","Were there only human raters or were machines employed as well?","rater_type","categorical","""human only"" || ""computer only"" || ""human and computer"" || ""not reported"" || ""not applicable""",NA,NA,"coding",NA,NA,NA,NA,NA,NA,NA,NA,NA
"Inter-rater reliability","Was inter-rater reliability calculated?","IRR","categorical","""yes"" || ""no"" || ""not reported"" || ""not applicable""",NA,NA,"coding",NA,NA,NA,NA,NA,NA,NA,NA,NA
"Type of segmentation","How was segmentation achieved?","segment_type","categorical","""automated"" || ""manual"" || ""automated and manual""|| ""not reported"" || ""not applicable""",NA,NA,"segmentation",NA,NA,NA,NA,NA,NA,NA,NA,NA
"Definition of stanza","How was a stanza defined?","stanza_def","string",NA,NA,NA,"segmentation",NA,NA,NA,NA,NA,NA,NA,NA,NA
"Definition of utterance","How was an utterance defined?","utterance_def","string",NA,NA,NA,"segmentation",NA,NA,NA,NA,NA,NA,NA,NA,NA
"Unit in networks","How was a unit defined in the generated network(s)?","network_unit","string",NA,NA,NA,"segmentation",NA,NA,NA,NA,NA,NA,NA,NA,NA
"Stanza window","How was the stanza window length defined?","stanza_window","categorical","""moving window"" || ""whole conversation"" || ""infinite stanza"" || ""not reported"" || ""not applicable""",NA,NA,"segmentation",NA,NA,NA,NA,NA,NA,NA,NA,NA
"QE conceptualization and use","How was QE and/or ENA conceptualized, defined? Why was QE/ENA employed?","QE_concept","string",NA,NA,NA,"general",NA,NA,NA,NA,NA,NA,NA,NA,NA
"Open access","Link to preprint or open access publication","OS_OA","categorical","""yes"" || ""no"" || ""not applicable""",NA,NA,"openscience",NA,NA,NA,NA,NA,NA,NA,NA,NA
"Preregistration","Link to repository with publicly accessible preregistration provided","OS_PreReg","categorical","""yes"" || ""no"" || ""not applicable""",NA,NA,"openscience",NA,NA,NA,NA,NA,NA,NA,NA,NA
"Open data","Link to repository with publicly accessible data provided","OS_Data","categorical","""yes"" || ""no"" || ""not applicable""",NA,NA,"openscience",NA,NA,NA,NA,NA,NA,NA,NA,NA
"Open process","Link to repository with publicly accessible analysis scripts or other documentation provided","OS_Process","categorical","""yes"" || ""no"" || ""not applicable""",NA,NA,"openscience",NA,NA,NA,NA,NA,NA,NA,NA,NA
NA,NA,NA,NA,NA,NA,NA,NA,NA,NA,NA,NA,NA,NA,NA,NA,NA
NA,NA,NA,NA,NA,NA,NA,NA,NA,NA,NA,NA,NA,NA,NA,NA,NA
NA,NA,NA,NA,NA,NA,NA,NA,NA,NA,NA,NA,NA,NA,NA,NA,NA
NA,NA,NA,NA,NA,NA,NA,NA,NA,NA,NA,NA,NA,NA,NA,NA,NA
NA,NA,NA,NA,NA,NA,NA,NA,NA,NA,NA,NA,NA,NA,NA,NA,NA
NA,NA,NA,NA,NA,NA,NA,NA,NA,NA,NA,NA,NA,NA,NA,NA,NA
NA,NA,NA,NA,NA,NA,NA,NA,NA,NA,NA,NA,NA,NA,NA,NA,NA
NA,NA,NA,NA,NA,NA,NA,NA,NA,NA,NA,NA,NA,NA,NA,NA,NA
NA,NA,NA,NA,NA,NA,NA,NA,NA,NA,NA,NA,NA,NA,NA,NA,NA
NA,NA,NA,NA,NA,NA,NA,NA,NA,NA,NA,NA,NA,NA,NA,NA,NA
NA,NA,NA,NA,NA,NA,NA,NA,NA,NA,NA,NA,NA,NA,NA,NA,NA
NA,NA,NA,NA,NA,NA,NA,NA,NA,NA,NA,NA,NA,NA,NA,NA,NA
NA,NA,NA,NA,NA,NA,NA,NA,NA,NA,NA,NA,NA,NA,NA,NA,NA
NA,NA,NA,NA,NA,NA,NA,NA,NA,NA,NA,NA,NA,NA,NA,NA,NA
NA,NA,NA,NA,NA,NA,NA,NA,NA,NA,NA,NA,NA,NA,NA,NA,NA
NA,NA,NA,NA,NA,NA,NA,NA,NA,NA,NA,NA,NA,NA,NA,NA,NA
NA,NA,NA,NA,NA,NA,NA,NA,NA,NA,NA,NA,NA,NA,NA,NA,NA
NA,NA,NA,NA,NA,NA,NA,NA,NA,NA,NA,NA,NA,NA,NA,NA,NA
NA,NA,NA,NA,NA,NA,NA,NA,NA,NA,NA,NA,NA,NA,NA,NA,NA
NA,NA,NA,NA,NA,NA,NA,NA,NA,NA,NA,NA,NA,NA,NA,NA,NA
NA,NA,NA,NA,NA,NA,NA,NA,NA,NA,NA,NA,NA,NA,NA,NA,NA
NA,NA,NA,NA,NA,NA,NA,NA,NA,NA,NA,NA,NA,NA,NA,NA,NA
NA,NA,NA,NA,NA,NA,NA,NA,NA,NA,NA,TRUE,NA,TRUE,NA,NA,NA
